{
  "base_url": "/user/bangqishi-mt15-2021-3joav4mj/",
  "hostname": "0.0.0.0",
  "notebook_dir": "/home/jovyan",
  "password": false,
  "pid": 18,
  "port": 8888,
  "secure": false,
  "sock": "",
  "token": "N474VjCaRg-S2prM6rfOVw",
  "url": "http://0.0.0.0:8888/user/bangqishi-mt15-2021-3joav4mj/"
}